Answers
…
#Question2
Data_Science_Evaluation_copy["Total Days of shipment"]<- as.Date(Data_Science_Evaluation_copy$`Ship Date`,format="%m/%d/%Y")-as.Date(Data_Science_Evaluation_copy$`Order Date`,format="%m/%d/%Y")

Data_Science_Evaluation_copy %>% 
  group_by(`Item Type`,Region) %>% 
  summarise(td<-sum(`Total Days of shipment`)) %>% 
  filter(`td <- sum(\`Total Days of shipment\`)`>mean(`td <- sum(\`Total Days of shipment\`)`))

## `summarise()` has grouped output by 'Item Type'. You can override using the `.groups` argument.

## # A tibble: 32 x 3
## # Groups:   Item Type [12]
##    `Item Type` Region             `td <- sum(\`Total Days of shipment\`)`
##    <chr>       <chr>              <drtn>                                 
##  1 Baby Food   Asia               21094 days                             
##  2 Baby Food   Europe             36763 days                             
##  3 Baby Food   Sub-Saharan Africa 34317 days                             
##  4 Beverages   Europe             36064 days                             
##  5 Beverages   Sub-Saharan Africa 35729 days                             
##  6 Cereal      Asia               19320 days                             
##  7 Cereal      Europe             37059 days                             
##  8 Cereal      Sub-Saharan Africa 35093 days                             
##  9 Clothes     Asia               20275 days                             
## 10 Clothes     Europe             35805 days                             
## # ... with 22 more rows
…
